<?xml version="1.0" standalone="no"?>
<!DOCTYPE svg PUBLIC "-//W3C//DTD SVG 20010904//EN"
 "http://www.w3.org/TR/2001/REC-SVG-20010904/DTD/svg10.dtd">
<svg version="1.0" xmlns="http://www.w3.org/2000/svg"
 width="16.000000pt" height="16.000000pt" viewBox="0 0 16.000000 16.000000"
 preserveAspectRatio="xMidYMid meet">
<metadata>
Created by potrace 1.11, written by Peter Selinger 2001-2013
</metadata>
<g transform="translate(0.000000,16.000000) scale(0.002658,-0.002658)"
fill="#000000" stroke="none">
<path d="M2589 5885 c-3 -2 -63 -7 -134 -10 -147 -8 -183 -10 -275 -19 -36 -3
-92 -8 -125 -11 -33 -3 -71 -8 -85 -10 -14 -3 -43 -7 -65 -10 -118 -13 -164
-20 -225 -30 -19 -4 -46 -8 -60 -10 -14 -2 -54 -8 -90 -15 -36 -7 -76 -14 -90
-16 -76 -13 -291 -60 -395 -86 -66 -16 -127 -31 -135 -33 -55 -12 -221 -59
-250 -70 -19 -7 -37 -13 -40 -13 -27 0 -494 -154 -543 -179 l-27 -14 0 -947
c-1 -1681 -1 -1640 27 -1827 3 -22 7 -49 8 -60 36 -264 178 -664 332 -933 44
-78 171 -268 187 -281 9 -8 16 -18 16 -24 0 -5 8 -17 18 -26 10 -9 31 -34 48
-55 53 -71 219 -243 319 -330 95 -83 112 -96 215 -171 41 -30 80 -58 85 -63
69 -55 448 -262 525 -286 14 -5 27 -9 30 -11 58 -26 87 -38 95 -40 6 -1 17 -5
25 -8 41 -16 173 -57 201 -62 18 -3 36 -8 41 -11 9 -6 9 -6 113 -28 72 -16 82
-17 200 -35 295 -44 621 -42 915 5 139 22 152 24 190 34 19 5 46 11 60 14 72
15 84 17 92 22 4 3 17 7 28 10 46 10 60 14 170 52 124 42 353 141 358 154 2 4
10 8 17 8 19 0 193 101 299 174 49 34 98 68 111 76 20 14 61 46 154 125 108
90 311 297 311 317 0 4 7 8 15 8 8 0 15 5 15 10 0 6 9 21 21 33 11 12 48 58
81 102 32 44 65 87 71 95 29 37 87 131 87 140 0 5 4 10 8 10 16 0 180 335 225
461 39 107 101 319 112 384 2 11 5 29 8 40 2 11 8 42 11 68 4 27 9 56 11 65 3
16 12 98 22 187 2 22 5 616 7 1320 l4 1279 -23 12 c-47 24 -570 184 -685 209
-8 2 -15 4 -15 5 0 2 -61 17 -100 24 -5 1 -16 5 -22 9 -7 5 -13 6 -13 3 0 -2
-15 0 -32 5 -50 15 -70 20 -113 29 -22 4 -83 17 -135 30 -52 12 -106 24 -120
26 -14 2 -47 9 -75 14 -27 5 -61 12 -75 14 -14 3 -35 7 -46 10 -12 2 -37 7
-55 10 -19 3 -43 7 -54 10 -11 2 -42 7 -70 10 -27 4 -75 11 -105 16 -94 16
-164 25 -260 35 -36 4 -74 9 -85 11 -11 3 -49 7 -85 10 -88 7 -144 12 -210 18
-30 3 -100 9 -155 12 -122 8 -810 16 -816 9z"/>
</g>
</svg>
