<?xml version="1.0" encoding="utf-8"?>
<!-- Generator: Adobe Illustrator 21.0.2, SVG Export Plug-In . SVG Version: 6.00 Build 0)  -->
<svg version="1.1" id="Layer_1" xmlns="http://www.w3.org/2000/svg" xmlns:xlink="http://www.w3.org/1999/xlink" x="0px" y="0px"
	 viewBox="0 0 602 593" style="enable-background:new 0 0 602 593;" xml:space="preserve">
<style type="text/css">
	.st0{fill:#FDFDFD;}
	.st1{fill:#191919;}
	.st2{fill:#00796B;}
	.st3{fill:#AC2F2B;}
	.st4{fill:#FFC107;}
</style>
<g>
	<path class="st0" d="M591.4,190.9c0,36.7,0.1,73.4,0,110.2c-0.2,43.1-9.8,84.1-29.4,122.7c-29.8,58.6-75.1,102.5-135.4,131.6
		c-28.6,13.8-59,22.7-90.8,26.4c-84.3,9.6-159.6-11.4-225-63.7c-49.2-39.4-81.3-89.6-97.1-149.5c-5.4-20.5-8.2-41.3-8.5-62.4
		C5,289.6,5,273,5,256.5c0-64.3,0.1-128.6,0.1-192.9c0-2.3,0.6-3.4,2.9-4.2c43.7-16.1,88.3-28.8,134.2-37.5
		c37.6-7.1,75.5-11.5,113.7-13.1c32.3-1.4,64.6-0.8,96.8,1.6c72.1,5.3,142.4,19.7,211.1,41.2c8.3,2.6,16.5,5.4,24.8,8
		c2.1,0.7,2.8,1.5,2.8,3.7C591.5,105.8,591.5,148.4,591.4,190.9C591.5,190.9,591.5,190.9,591.4,190.9z"/>
	<path class="st1" d="M318.8,8.1c0.5,0.9,1.4,0.5,2.1,0.5c19.2,0.6,38.3,2,57.3,4c21.1,2.2,42,5.1,62.9,8.7
		C479.4,28,517,37,554.1,48.1c12.5,3.7,24.9,7.7,37.3,11.9c1.7,0.6,2.4,1.3,2.4,3.2c-0.1,37.4,0,74.7-0.1,112.1
		c0,41.2,0,82.4-0.2,123.5c-0.3,74.9-26.7,140.1-79.5,194.9c-44.2,45.8-98.6,74.6-162.5,85.7c-63,10.9-123.5,2.8-181.2-24.2
		c-27.7-13-52.7-29.9-74.8-50.6c-43-40.2-71.1-88.5-84-145c-4.3-19-6.5-38.3-6.5-57.8C5,222.4,5,143,5,63.6c0-2.2,0.8-3,2.8-3.7
		c43-16,87.1-28.6,132.3-37.3c37.6-7.2,75.6-11.9,114-13.5c3.2-0.1,6.3-0.3,9.5-0.4c0.5,0,1.1,0.2,1.3-0.5
		C282.9,8.1,300.8,8.1,318.8,8.1z M591.4,191.6L591.4,191.6c0.1-42.2,0.1-84.4,0.1-126.6c0-2.2-0.7-3-2.8-3.7
		c-8.3-2.5-16.5-5.4-24.7-7.9c-68.5-21.3-138.5-35.6-210.3-40.9c-32.1-2.4-64.3-2.9-96.5-1.5c-38.1,1.6-75.9,6-113.3,13
		C98.2,32.6,53.7,45.2,10.2,61.2c-2.3,0.8-2.9,1.9-2.9,4.2c0,63.8-0.1,127.5-0.1,191.3c0,16.4,0,32.8,0.2,49.2
		c0.3,20.9,3.1,41.6,8.5,61.9c15.7,59.5,47.7,109.3,96.7,148.3c65.2,51.9,140.2,72.8,224.1,63.2c31.7-3.6,61.9-12.5,90.4-26.2
		c60.1-28.9,105.2-72.4,134.9-130.5c19.6-38.3,29.1-79,29.3-121.7C591.5,264.5,591.4,228.1,591.4,191.6z"/>
	<path class="st1" d="M197.5,50.5c-0.8,7.5-1.5,14.9-2.2,22.3c-0.4,4.1-1.3,5.3-4.5,5.9c-2.8,0.5-4.9-0.7-6.5-4
		c-3-6.1-5.8-12.3-8.7-18.5c-0.4-0.8-0.5-1.8-1.8-2.5c0.7,4.2,1.4,8.2,2.1,12.2c0.6,3.3,1.3,6.7,1.8,10c0.5,3.1-0.6,4.8-3.1,5.2
		s-4.1-1-4.7-4c-1.6-8.8-3.2-17.7-4.7-26.6c-0.3-2-1.1-4.5,1.1-5.9c2.7-1.7,6-1.9,9.2-1.2c1.4,0.3,2,1.9,2.6,3.1
		c3.1,6.4,6.1,12.7,9.2,19.1c0.4,0.9,0.7,1.9,1.8,2.9c0.5-3.9,0.9-7.6,1.3-11.3c0.4-4,0.8-7.9,1.2-11.9c0.5-4.8,6.4-8,10.9-5.8
		c1.3,0.6,2,1.7,2.2,3c1.8,9.8,3.6,19.7,5.3,29.6c0.4,2.5-0.8,4-3,4.3c-2.7,0.4-4.3-0.9-4.8-3.8c-1.3-7-2.5-14-3.7-21
		C198.3,51.2,198.4,50.7,197.5,50.5z"/>
	<path class="st1" d="M30.3,81.5c1.5,1.1,3.1,2.3,4.7,3.4c0.8,0.5,0.8,1.3,0.8,2c-0.3,13.7-0.6,27.5-0.8,41.2
		c-0.2,9.5-0.4,19-0.5,28.5c-0.5,27.1-0.9,54.1-1.4,81.2c-0.2,13.3-0.5,26.6-0.7,39.9c-0.2,11.5-0.4,23.1-0.3,34.6
		c0.1,15.3,3.2,30.2,7.1,44.9c2,7.4,4.3,14.7,6.6,22.1c-5.2-13.3-9.2-27-12-40.9c-2.4-11.7-3.2-23.5-3.1-35.4c0.1-28,0-56-0.1-84.1
		c0-13.8-0.1-27.7-0.1-41.5C30.2,145.6,30.3,113.6,30.3,81.5z"/>
	<path class="st1" d="M39.8,88.8c1.5,1.1,4.1,3.2,5.7,4.3c0.8,0.5,0.6,2.6,0.6,3.4c-0.3,13.7-0.4,16.7-0.7,30.5
		c-0.2,9.5-0.4,19-0.5,28.5c-0.5,27.1-0.9,54.1-1.4,81.2c-0.2,13.3-0.5,26.6-0.7,39.9c-0.2,11.5-0.4,23.1-0.3,34.6
		c0.1,15.3,2.4,27,6.3,41.7c2,7.4,4.5,15.8,6.8,23.1c-5.2-13.3-8.6-24.8-11.4-38.8c-2.4-11.7-3.2-23.5-3.1-35.4
		c0.1-28,0-56-0.1-84.1c0-13.8-0.5-27.7-0.5-41.5C40.3,144.3,39.8,120.9,39.8,88.8z"/>
	<path class="st1" d="M569.8,81.4c0,1.6,0,2.8,0,4.1c-0.1,33.3-0.1,66.6-0.2,99.9c0,17.6-0.1,35.1-0.2,52.7c-0.1,26,0,52-0.4,77.9
		c-0.2,13.5-3.4,26.6-6.9,39.5c-0.1,0.4-6.8,23-7.3,23.9c4.1-16.4,7.1-26.6,7.6-28.5c4.7-18.2,6.1-36.6,5.3-55.3
		c-0.3-7.7-0.1-15.4-0.2-23.2c-0.3-21.9-0.7-43.8-1.1-65.7c-0.3-18.3-0.7-36.6-1.1-55c-0.4-20.4-0.8-40.7-1.5-61.1
		c-0.1-3.6,0.5-6.6,4.1-8.3L569.8,81.4z"/>
	<path class="st1" d="M544.5,376c1.4-5.5,6.2-21.6,7.6-27.1c4-16.2,6.3-32.6,5.7-49.4c-0.4-11.4-0.3-22.7-0.4-34.1
		c-0.4-28.8-0.9-57.5-1.4-86.3c-0.3-15.2-0.7-30.4-1-45.5c-0.3-12-0.6-23.9-1.1-35.9c-0.1-2.9,0.4-5.1,3.2-6.5l3-1.8
		c0,4.8,0,9.6,0,14.3c-0.1,14.9-0.3,29.9-0.3,44.8c-0.1,21.7-0.1,43.5-0.2,65.2c-0.1,31.7-0.1,63.3-0.3,95
		c-0.1,16.8-3.9,33.1-8.7,49.2c-0.7,2.5-1.3,4.2-1.3,4.2L544.5,376z"/>
	<path class="st1" d="M276.5,57.6c0-6.5,0-13.1,0-19.7c0-2.2,0.4-4.1,3.1-4.5c3.1-0.5,4.8,0.7,5,3.7c0.4,7.3,0.6,14.6,0.9,21.9
		c0.1,2.5,0.4,4.9,0.3,7.4c-0.1,1.6,0,3.6-2.1,4.3c-2.4,0.8-4.7,0.8-6.7-0.9c-1-0.9-1.9-2-2.6-3.1c-4.2-6-8.4-11.9-12.6-17.9
		c-0.4-0.5-0.8-1-1-1.3c0,5.4,0,10.9,0,16.5c0,1.3,0.2,2.5,0.2,3.8c0,2.7-1.5,4.2-4.1,4.3c-2.6,0-4.1-1.3-4.2-4.2
		c-0.2-5.7-0.4-11.4-0.6-17c-0.1-3.7-0.3-7.5-0.4-11.2c-0.1-2.2,0-4.3,2.8-5.1c2.8-0.8,5.2-0.2,7,2.2c3.6,4.8,7,9.8,10.5,14.6
		C273.5,53.4,275.2,55.7,276.5,57.6z"/>
	<path class="st1" d="M121.6,80.9c-1.8-5.7-3.3-10.7-4.8-15.8c-0.5-1.8-1.1-3.6-1.6-5.4c-0.5-1.9,0.2-3.4,2.1-4.1
		c1.9-0.7,3.8-0.8,5.1,1.1c0.4,0.6,0.7,1.2,0.9,1.8c2.8,8.7,5.5,17.5,8.2,26.3c0.6,2.1,1.9,4.5-0.8,6.2s-5.6,1.4-8.4-1
		c-5.7-4.9-11.4-9.8-17.1-14.7c-0.8-0.7-1.7-1.4-2.8-2.3c-0.3,1.4,0.3,2.3,0.6,3.3c1.6,5.3,3.3,10.5,4.9,15.8c1,3.2,0.4,4.8-2.1,5.7
		c-2.8,1-4.7,0.1-5.7-3.1c-2.2-6.6-4.2-13.3-6.3-19.9c-0.8-2.6-1.6-5.2-2.3-7.8c-0.5-1.6-0.7-3.3,0.9-4.4c1.8-1.2,3.7-1.9,5.9-1
		c1.8,0.7,3.2,2,4.7,3.2C109,70,115,75.2,121.6,80.9z"/>
	<path class="st1" d="M65.8,372.4C54.6,340,55.6,344,53.5,330c-1.5-9.3-2.8-23.6-2.8-33.1c0-41.4-0.1-82.8-0.3-124.3
		c-0.1-24-0.4-48-0.6-72c0-1.2,0-2.5,0-4.2c2.1,1.6,4,3.1,5.9,4.5c0.9,0.7,0.5,1.5,0.5,2.4c-0.5,15.3-1.1,30.5-1.5,45.8
		c-0.5,18.7-0.9,37.3-1.2,56c-0.5,26-0.8,52.1-1.2,78.1c-0.2,11.8-0.7,23.6,0.6,35.3c1.8,14.3,2.7,19.2,4.9,27.7
		C58,346.8,62,359.5,65.8,372.4z"/>
	<path class="st1" d="M309.6,71.9c-12.2,0-19.8-7.4-19.8-19.3c0-11.6,7.9-19.4,19.6-19.4c12,0,20,7.6,19.9,19
		C329.3,64.4,321.8,71.9,309.6,71.9z M298.7,52.8c0,0.9-0.1,1.9,0,2.8c0.5,5.5,4.3,9.2,9.7,9.6c6,0.5,10.3-2.4,11.8-7.9
		c0.8-3.1,0.9-6.2,0.1-9.3c-1.2-4.8-5.3-8-10.4-8.1c-5.2-0.1-9.2,2.8-10.7,7.7C298.7,49.2,298.6,51,298.7,52.8z"/>
	<path class="st1" d="M549.9,96.6c0,7.3,0,14.1,0,21c-0.1,9.2-0.3,18.3-0.3,27.5c-0.1,13.3-0.1,26.6-0.2,40
		c-0.1,32.7-0.1,65.4-0.3,98c-0.1,10.3,0.4,20.7-0.5,31c-1.1,13.1-4,26-7.7,38.6c-0.1,0.3-6.3,19.6-6.3,19.6
		c0.8-3,6.9-24.8,7.6-27.7c4.7-18.2,5.9-36.6,5.4-55.3c-0.5-16.5-0.4-33.1-0.7-49.6c-0.5-27.6-0.9-55.3-1.6-82.9
		c-0.4-17.6-1.2-35.2-1.9-52.9c-0.1-1.7,0.3-2.9,1.9-3.8L549.9,96.6z"/>
	<path class="st1" d="M208.3,519c-2.4,5.8-4.9,11.5-7.3,17.3c-0.3,0.6-0.5,1.3-0.8,1.9c-1.2,2.3-2.6,3-4.9,2.2
		c-2.4-0.8-3.2-2.4-2.3-4.8c1.3-3.5,2.8-6.9,4.2-10.4c2.2-5.3,4.5-10.7,6.7-16c0.9-2.1,1.8-4.2,4.7-4c3,0.2,4.9,2,5.4,5.3
		c1.1,7,2.2,14.1,3.3,21.1c0.2,1.3,0.4,2.5,0.7,4.4c2.2-5.3,4.2-10,6.2-14.8c0.7-1.6,1.3-3.3,2.1-4.9c1.2-2.5,3.1-3.3,5.3-2.5
		c2.3,0.9,3.1,2.5,2,5.2c-3.8,9.2-7.7,18.4-11.5,27.5c-0.7,1.6-1.7,2.9-3.7,2.6c-2.4-0.4-4.7-1.3-5.2-3.9c-0.7-3.6-1.3-7.2-1.9-10.8
		c-0.8-5.1-1.6-10.2-2.4-15.3C208.6,519,208.5,519,208.3,519z"/>
	<path class="st1" d="M274.7,546.2c1-6.3,1.9-12.7,2.9-19c0.2-1.3,0.4-2.5,1.3-3.5c1.2-1.3,2.9-1.3,4.4-0.8c1.7,0.6,2.4,2,2.2,3.7
		c-0.4,4-1,7.9-1.6,11.8c-0.8,5.5-1.6,11.1-2.5,16.6c-0.4,2.2-0.6,4.7-3.8,5c-3,0.3-5-1-6.4-4.1c-3-6.8-5.9-13.6-8.9-20.3
		c-0.4-0.8-0.7-1.7-1.6-2.5c-0.7,5-1.5,10-2.2,15c-0.2,1.7-0.4,3.4-0.7,5c-0.6,3-2,4-4.6,3.7c-2.4-0.3-3.5-1.8-3.1-4.7
		c0.7-5.5,1.5-10.9,2.3-16.4c0.6-4,1.2-8.1,1.8-12.1c0.3-1.9,0.7-3.8,3.2-4.1c2.6-0.3,4.8,0.3,6,2.7c1.7,3.3,3.2,6.8,4.7,10.2
		c2,4.6,4,9.2,6,13.8C274.3,546.3,274.5,546.2,274.7,546.2z"/>
	<path class="st1" d="M127.7,495.8c-7.7,0.7-12.5-3-15.5-8.9c-3.1-6.2-1.8-12.1,2.3-17.5c4.8-6.3,10.8-10.7,19.5-9.9
		c8.3,0.8,16.5,9.6,16.3,17.7c0,1.1-0.2,2.2-0.8,3.2c-1,1.5-2.4,2.2-4.2,1.9s-2.7-1.6-2.9-3.2c-0.2-1-0.1-2-0.1-3
		c0-6.6-5.8-10.9-12.1-8.7c-5.8,2.1-10,6.1-11.4,12.1c-0.9,3.7,0.8,6.8,3.9,9.1c2.8,2.1,5.9,2.4,9.2,1.1c1.6-0.6,2.2-1.3,0.6-2.6
		c-1-0.8-1.9-1.7-2.8-2.7c-1.4-1.6-1.1-3.2,0.2-4.6c1.4-1.4,3-1.2,4.4,0.1c2.4,2.2,4.7,4.3,7,6.6c1.7,1.6,1.6,3.2,0,4.9
		c-3.2,3.2-6.3,6.4-9.5,9.6c-1.3,1.3-2.8,2.6-4.8,1.1c-1.9-1.5-1.2-3.1-0.1-4.7C127.1,496.9,127.3,496.6,127.7,495.8z"/>
	<path class="st1" d="M524.3,368.5c3.9-12.1,7.8-25.8,10.2-38.3c2.3-11.8,3.3-23.7,3.1-35.7c-0.3-17.7-0.4-35.5-0.7-53.2
		c-0.5-27.4-0.9-54.8-1.6-82.2c-0.4-15.5-1.2-31-2.1-46.5c-0.1-2.5,0.6-4.1,2.7-5.5l3.9-2.9c0,8.4,0,16.6,0,24.8
		c0,5.9-0.3,11.7-0.3,17.6c-0.2,21.9-0.4,43.8-0.4,65.7c-0.1,26.3-0.4,52.6,0,78.9c0.3,21.6-3.3,42.5-9.8,63.1
		c-1.3,4.3-2.7,7.7-4.1,12C525.1,366.3,524.4,368.6,524.3,368.5z"/>
	<path class="st1" d="M475.6,97.4c-2.5-0.8-4.8-1.3-6.8-2.2c-6.9-2.8-9.8-8.6-7.7-15.5c2-6.6,4.1-13.1,6.2-19.7
		c1-3.1,2.8-4.2,5.7-3.3c2.6,0.8,3.4,2.5,2.4,5.7c-1.9,6-3.8,12-5.6,18c-1.9,6,0,9.3,7.7,10c3.2,0.3,5.4-1.6,6.7-5.4
		c1.8-5.5,3.5-11,5.2-16.5c0.3-1,0.6-2,0.9-2.9c1-2.8,2.6-3.6,5.5-2.8c2.6,0.7,3.4,2.3,2.5,5.2c-2,6.7-4.1,13.3-6.2,19.9
		c-1.7,5.1-5,8.5-10.7,9.4c-1.4,0.2-2.6,1-3.7,1.9c-2.3,2-2.2,3.3,0.5,4.7c1.2,0.6,2.1,1.4,1.5,2.8c-0.5,1.4-1.8,1.6-3.1,1.3
		c-2.3-0.5-4.8-1.1-5.5-3.7c-0.7-2.5,0.8-4.4,2.9-5.8C474.5,98.1,474.9,97.8,475.6,97.4z"/>
	<path class="st1" d="M452.2,492.3c3.9-0.6,6.1,1.3,8.2,3.7c1.3,1.6,2.8,3.1,4.2,4.5c1.9,1.8,2.1,3.4,0.5,5
		c-1.8,1.9-4.3,2.4-6.1,0.7c-1.8-1.6-3.4-3.5-5-5.2c-2.7-2.8-4-3-7.2-0.8c-2.2,1.5-5.8,2.7-6.1,4.8c-0.3,1.8,2.7,4.1,4.2,6.2
		c0.7,0.9,1.4,1.8,2,2.7c1.3,2,1,3.7-1,5.1c-2,1.4-4,1.3-5.5-0.7c-6-7.9-12-15.9-17.9-23.9c-1.7-2.3-1.3-4.2,1-5.8
		c4.3-3.1,8.6-6.2,13.1-9c6.9-4.3,14.2-1.5,16.6,6.1C453.8,488.1,453.4,490,452.2,492.3z M441.1,485.3c-3.7,1.2-6.7,4.3-10.3,6.5
		c0.7,3,3.2,4.8,4.8,7.3c0,0.1,0.1,0.1,0.2,0.2c0.4,0.4,0.7,0.3,1.1,0c2.7-2,5.7-3.6,8.1-6c1.4-1.4,1.8-3.1,0.8-4.9
		C444.9,486.8,443.7,485.5,441.1,485.3z"/>
	<path class="st1" d="M75.3,368.5c-3.4-9.9-8.8-27.6-10.1-33.1c-3.1-13.2-4.6-26.5-4.5-40.1c0.2-21.4,0-42.8-0.1-64.2
		c-0.1-26.6-0.2-53.1-0.4-79.7c-0.1-14.8-0.5-29.5-0.7-44.3c0-0.9-0.1-3.2-0.1-3.2c1.9,1.4,4.2,3.2,6.1,4.6c1.1,0.8,0.9,1.8,0.9,2.7
		c-0.5,12.9-1.1,25.7-1.6,38.6c-0.3,9.1-0.6,18.1-0.8,27.2c-0.5,23.6-0.8,47.2-1.2,70.7c-0.2,11.5-0.4,22.9-0.5,34.4
		c-0.1,8.7-0.4,17.5,0.1,26.2c0.8,13.9,4,27.2,7.6,40.6C70.2,349.9,75.1,367.7,75.3,368.5z"/>
	<path class="st1" d="M88.8,433.6c0,3.8-2,5.7-4.9,7.3c-1.7,0.9-3.2,2.1-4.7,3.3c-2.3,1.7-4.1,1.8-5.7-0.1c-1.8-2.1-1.8-4.4,0.3-6.1
		c1.7-1.4,3.7-2.6,5.6-3.8c3.3-2.3,3.7-3.5,1.7-7c-1.2-2.2-2.1-5.6-4-6.3c-1.7-0.6-4.5,1.9-6.8,3.1c-0.9,0.5-1.8,1-2.8,1.5
		c-2.7,1.3-4.4,0.9-5.6-1.2c-1.3-2.2-0.8-4.1,1.8-5.5c7.7-4.1,15.4-8.2,23.1-12.3c6.8-3.6,7-3.6,10.8,3c2.1,3.7,4.4,7.3,6.2,11.2
		c3.4,7.4-2,14.8-10.5,14.5C91.8,435.1,90.5,434.4,88.8,433.6z M92.3,428c3.7,0,6.1-3.4,4.4-6.8c-1.3-2.6-2.9-5-4.3-7.6
		c-0.5-1-1-0.9-1.8-0.5c-2.1,1.1-4.1,2.2-6.2,3.3c-1,0.5-1.2,1-0.6,1.9c1.4,2.3,2.7,4.7,4.1,7.1C88.8,426.9,90.1,428.1,92.3,428z"/>
	<path class="st1" d="M196.9,508.4c-0.2,9.7-7.5,19.5-15.5,21.4c-7.9,1.9-14.4-1-19.6-6.6c-5-5.4-5-11.7-2.3-18.1
		c1.8-4.2,4.4-7.9,8.3-10.6c6.1-4.2,12.4-4.1,18.8-0.8C193.1,497,196.8,502.1,196.9,508.4z M176,523.2c1.2,0.1,2.5-0.2,3.6-0.8
		c5.3-2.6,7.9-7.1,9.2-12.3c1.1-4.6-0.9-8.1-5.2-10.4c-4.3-2.2-8.2-1.8-11.8,1.6c-3,2.8-4.9,6.1-5.8,10
		C164.6,517.5,169.2,523.2,176,523.2z"/>
	<path class="st1" d="M130,55.3c-0.3-1.7,1-2.9,2.9-3.4c7.2-1.6,14.4-3.2,21.6-4.6c2-0.4,3.7,0.2,4.2,2.5c0.5,2.2-0.7,3.4-2.8,3.9
		c-5,1.1-10.1,2.3-15.2,3.2c-1.8,0.3-2,0.9-1.6,2.5c1.3,5.3,1.3,5.3,6.7,4.2c2.9-0.6,5.8-1.2,8.8-1.8c0.8-0.2,1.6-0.3,2.3-0.3
		c1.9-0.1,3.2,0.6,3.6,2.5c0.4,2-0.7,3.1-2.5,3.6c-4,0.9-8,1.8-12.1,2.6c-3.8,0.8-3.8,0.7-2.9,4.2c1.5,5.8,1.5,5.8,7.6,4.5
		c3.6-0.8,7.2-1.6,10.8-2.4c0.8-0.2,1.6-0.2,2.4-0.2c2,0,3.1,0.9,3.5,2.8c0.4,2-0.6,3.4-2.5,3.8c-7.3,1.6-14.5,3.2-21.9,4.6
		c-3.5,0.7-4.9-0.2-5.8-3.3c-2.4-8.9-4.6-17.9-6.8-26.9C130.1,56.9,130.1,56.4,130,55.3z"/>
	<path class="st1" d="M246.5,59.1c0.3,7.8-3.2,12.4-10.2,14.2c-3.8,1-7.6,1.2-11.5,0.4c-5.9-1.1-9.9-5.9-10.6-12.4
		c-0.6-6.6-1.2-13.2-1.9-19.8c-0.3-3,0.7-4.3,3.5-4.7c3.1-0.4,4.6,0.7,4.9,3.9c0.7,6.2,1.2,12.3,1.9,18.5c0.1,0.8,0.2,1.5,0.3,2.3
		c1.1,4.9,3.3,6.3,9,5.7c4.2-0.5,6.2-2.6,6-7.2c-0.4-6.8-1.2-13.5-1.8-20.3c-0.3-3.1,0.6-4.4,3.3-4.7c3.2-0.4,4.6,0.6,4.9,3.8
		C245.3,45.8,245.9,52.9,246.5,59.1z"/>
	<path class="st1" d="M359.4,52.3c4.7-3.5,9.1-6.8,13.4-10c1.1-0.8,2.2-1.7,3.4-2.5c2.1-1.3,4.7-1,5.9,0.7c1.2,1.7,0.7,3.2-1.6,4.9
		c-2.9,2.1-5.8,4.4-8.9,6.4c-2,1.3-2,2.3-0.8,4.2c2.9,4.3,5.4,8.7,8.1,13.1c0.4,0.7,0.8,1.3,1.1,2c1.1,2.5,0.6,4.4-1.2,5.3
		c-2.1,1-4.6,0.4-5.9-1.8c-2.9-4.7-5.6-9.4-8.4-14.1c-0.3-0.6-0.7-1.2-1.1-1.8c-0.2-0.3-0.3-0.7-1-0.6c-1.4,0.3-4.3,3.4-4.5,4.9
		c-0.4,2.6-0.6,5.2-1.1,7.8c-0.5,2.7-1.9,3.5-5,3c-2.3-0.3-3.5-1.7-3.2-4.1c1.3-9.9,2.6-19.9,4-29.8c0.4-2.8,2.1-3.8,5.1-3.4
		c2.4,0.3,3.5,1.7,3.2,4.4C360.6,44.6,360,48.2,359.4,52.3z"/>
	<path class="st1" d="M321.2,560c-3.8,0.2-7.5-0.8-10.8-3.2c-2.1-1.5-3.5-3.4-2.9-6.1c0.6-2.9,3.5-3.8,5.8-2.1
		c0.5,0.4,1.1,0.9,1.5,1.4c2.8,4,7.5,3.9,11.6,2.7c2.1-0.6,3.5-2,3.5-4.3c-0.1-2.2-1.7-3.3-3.8-3.7c-3.6-0.7-7.3-1.2-10.9-1.8
		c-7.6-1.4-10.5-5.6-9.1-13.3c0.6-3.2,2.9-5.4,6-6.6c6.1-2.4,12.3-2.9,18.2,0.6c1.8,1,3.1,2.4,3.5,4.5c0.2,1.4,0,2.6-1.2,3.4
		c-1.3,0.9-2.8,1-4.2,0.2c-0.8-0.5-1.5-1.2-2.2-1.8c-2.7-2.5-7.1-3.2-10.5-1.5c-1.7,0.8-2.5,2.1-2.3,3.9c0.2,1.8,1.2,2.8,3,3.1
		c4.2,0.8,8.5,1.4,12.7,2.4c5.4,1.2,7.8,3.7,8.3,7.9c0.7,5.6-1.2,9.5-5.9,12C328.3,559.5,325,560,321.2,560z"/>
	<path class="st1" d="M495,422.5c-0.1-6.2,4.9-13.5,10.9-16c1.2-0.5,2.3-0.7,3.6-0.7c2.6,0,4.4,1.4,4.5,3.3s-1.6,3.8-4,4
		c-4.4,0.4-6.6,3-7.9,6.7c-0.7,2.1-0.2,3.7,1.6,4.9c1.9,1.3,3.5,0.6,4.9-0.8c2.7-2.7,5.3-5.4,8-8.1c4.4-4.2,8.5-4.8,13.3-2.2
		c4.8,2.6,7,7.1,5.6,12.5c-1.6,6.3-5.1,11.3-11.3,14.2c-1.6,0.7-3.2,1-4.9,0.8c-2.4-0.3-4.2-1.9-4.2-3.8c0-2.1,1.3-3.4,4.1-3.8
		c5.6-0.8,8.2-3,9.5-8c0.5-2.1,0-3.7-1.8-4.9c-2-1.3-3.8-0.6-5.2,0.8c-2.4,2.2-4.6,4.7-6.9,7c-5,5-9.5,5.9-14.5,3
		C496.7,429.5,495,426.5,495,422.5z"/>
	<path class="st1" d="M127.6,451.9c0,1.2-0.8,2.1-2.1,2.7c-1.5,0.7-2.8,0.2-3.8-0.9c-1.8-2-3.4-4.1-5.1-6.2c-1.5-1.9-3-3.7-4.6-5.6
		c-0.3-0.4-0.7-1.3-1.4-0.8c-1.8,1.2-3.5,2.5-5.2,3.9c-0.9,0.7,0.2,1.2,0.5,1.6c2.6,3.3,5.3,6.6,7.9,9.9c1.2,1.5,1.9,3.1,0.1,4.7
		c-1.6,1.5-3.5,1.3-5.2-0.8c-2.7-3.2-5.3-6.3-7.8-9.6c-1.1-1.4-1.8-1.4-3-0.3c-1.4,1.2-3,2.4-4.6,3.4c-1.2,0.8-1.1,1.3-0.2,2.3
		c3.2,3.7,6.2,7.6,9.3,11.4c0.9,1.2,1.7,2.4,1.3,4c-0.8,2.6-4.3,3.5-6.1,1.3c-4.7-5.5-9.1-11.2-13.6-16.9c-1.6-2-0.7-3.9,1.1-5.3
		c3.3-2.6,6.8-5.2,10.1-7.7c4-3,8-6.1,12.1-9.1c3.5-2.6,5.2-2.3,7.9,1c3.6,4.5,7.2,9,10.9,13.4C126.8,449.5,127.6,450.4,127.6,451.9
		z"/>
	<path class="st1" d="M448.7,75.6c-3-0.2-6.7-1.1-10.3-2c-2.1-0.5-2.7,0.1-3.1,2c-0.4,2.4-1.1,4.8-1.9,7.1c-0.8,2.5-2.5,3.3-5.1,2.7
		c-2.5-0.6-3.6-2-3-4.5c2.3-9.3,4.5-18.6,7-27.9c1-3.7,2.5-4.4,6.5-3.6c4.9,1,9.8,1.9,14.6,3.3c6.2,1.8,8.5,5.9,7.4,12.4
		C459.8,71.8,455.7,75.6,448.7,75.6z M452.7,62.9c0.1-2.5-1.1-4.1-4.1-4.8c-2.3-0.5-4.7-0.9-6.9-1.4c-1.2-0.3-1.7-0.1-2,1.2
		c-0.5,2.4-1.1,4.8-1.8,7.1c-0.4,1.3,0.1,1.6,1.3,1.8c2.2,0.4,4.4,1,6.7,1.4C450.1,68.9,452.4,67,452.7,62.9z"/>
	<path class="st1" d="M464.7,477.2c0-6.5,0-12.5,0-18.4c0-0.7-0.1-1.4,0.1-2c0.5-1.9,1.8-3.2,4-3s3.2,1.6,3.1,3.7
		c-0.1,3.8-0.1,7.6-0.3,11.4c-0.1,1.7,0.6,2.1,2.1,2.4c6,0.9,11.9,2,17.9,3c2.8,0.5,4.5,2.2,4.2,4.3c-0.3,2.2-2.8,3.6-5.7,3.1
		c-5.6-1-11.2-1.9-16.8-3c-1.4-0.3-1.7,0-1.9,1.4c-0.4,2.5,0.2,4.4,2.2,6.1c1.7,1.5,3.3,3.1,4.8,4.7c1.7,1.9,1.5,3.7-0.5,5.3
		c-1.8,1.6-3.6,1.6-5.3-0.1c-7.3-7.2-14.5-14.5-21.8-21.8c-1.6-1.6-1.9-3.4-0.2-5.1c1.9-1.9,3.8-2.1,5.8-0.3
		C459.1,471.3,461.6,474.1,464.7,477.2z"/>
	<path class="st1" d="M514.4,454c-1-0.1-2.6-0.9-4.2-1.5c-1.1-0.4-1.8-0.5-2.6,0.6c-2.2,2.9-4.6,5.8-6.9,8.6c-0.9,1-0.9,1.8,0,2.9
		c0.8,1,1.6,2,2.2,3.1c1.2,2.1,0.8,4.1-1.1,5.3c-1.9,1.3-3.9,1-5.4-1.3c-4.1-6.1-8.1-12.2-12.2-18.4c-1.6-2.5-3.3-5-4.9-7.5
		c-1.8-2.9-1.5-4.1,0.6-6.9c1.7-2.3,3.8-2.7,6.4-1.8c10,3.2,20,6.4,30,9.5c2,0.6,3.5,1.7,3.2,4C519.2,452.8,517.3,454.1,514.4,454z
		 M487.3,444.6c-0.1,0.1-0.2,0.3-0.3,0.4c2.8,4.1,5.7,8.2,8.7,12.6c2-2.4,3.8-4.7,5.6-7c0.4-0.5,0.7-1-0.3-1.3
		C496.4,447.8,491.8,446.2,487.3,444.6z"/>
	<path class="st1" d="M399.2,504.6c-0.3-3.4,1.9-4.3,4-5.3c2-1,3.8-1,5.6,0.5c5.3,4.6,10.6,9.2,15.9,13.8c2.7,2.3,5.4,4.6,8,7
		c2.2,2,2.5,4.1,1,5.5c-1.8,1.9-4.2,1.8-6.5-0.1c-3.8-3.3-3.8-3.3-8.4-1c-0.7,0.4-1.4,0.8-2.1,1.1c-4.3,1.5-7.2,3.6-5.1,8.8
		c0.8,2.1-1.1,4-3.4,4.3c-2.4,0.3-3.9-0.7-4.3-3.4c-1.1-7.1-2.2-14.2-3.2-21.4C400.2,510.9,399.7,507.4,399.2,504.6z M407.2,507.2
		c-0.1,0-0.2,0.1-0.3,0.1C407,507.3,407.1,507.2,407.2,507.2c-0.1,0.1-0.3,0.3-0.3,0.4c0.7,4.7,1.5,9.3,2.2,14
		c0.2,1.2,1,0.6,1.5,0.3c2.1-1.1,4.1-2.2,6.3-3.2c1.5-0.7,1.2-1.1,0.2-2.1C413.8,513.5,410.3,510.6,407.2,507.2z"/>
	<path class="st1" d="M396.4,521.6c-0.1,4.5-2,7.6-5.9,9.2c-2.7,1.2-5.5,2.2-8.4,3c-2.1,0.6-3,1.2-1.9,3.4c0.9,1.9,1.5,4,2.2,6
		c1.1,3,0.4,4.7-2.2,5.6c-2.7,0.9-4.3,0.1-5.4-2.9c-3.1-8.7-6.2-17.4-9.3-26.2c-1.3-3.8-0.6-5.2,3.3-6.6c3.9-1.3,7.8-2.7,11.7-3.8
		c7-2.1,11.8,0.2,14.5,6.8C395.9,518,396.4,520,396.4,521.6z M382.9,515.5c-2.6,0.8-5.7,1.7-8.7,2.8c-0.8,0.3-0.4,1-0.2,1.5
		c0.9,2.4,1.8,4.8,2.6,7.2c0.2,0.6,0.2,1.4,1.3,1c2.7-1,5.6-1.4,8.1-2.9c2.1-1.3,2.7-3.2,1.9-5.5
		C387.3,517.4,386.1,515.7,382.9,515.5z"/>
	<path class="st1" d="M420,83.3c-7-1.3-14-2.5-20.9-3.9c-2.4-0.5-3.1-2.3-2.4-5.4c1-5.1,2.1-10.1,3.2-15.2c0.9-4.2,1.8-8.5,2.8-12.7
		c0.6-2.7,2-3.5,4.8-3.1c2.9,0.4,3.9,1.9,3.3,5.2c-0.7,3.6-1.5,7.1-2.3,10.7c-0.9,4.3-1.8,8.6-2.8,12.9c-0.3,1.5,0.1,1.9,1.6,2.1
		c4.2,0.6,8.3,1.4,12.4,2.2c0.5,0.1,1.1,0.1,1.6,0.3c2,0.6,3.7,1.5,3.3,3.9C424,82.7,422.2,83.3,420,83.3z"/>
	<path class="st1" d="M382.2,74c1.1-7.5,2.3-15,3.4-22.5c0.4-2.5,0.7-5,1.2-7.5s2.3-3.5,4.8-3.1c2.6,0.4,3.8,1.8,3.4,4.5
		c-1.5,9.9-3,19.8-4.6,29.6c-0.4,2.5-2,3.6-4.4,3.3C383.4,78,382.1,76.6,382.2,74z"/>
	<path class="st1" d="M165.9,483c0,1.4-0.6,2.3-1.2,3.2c-5.8,7.7-11.6,15.3-17.3,23c-1.4,1.8-2.9,3.3-5.5,2.1
		c-2.9-1.4-3.3-3.5-1.2-6.3c4.9-6.5,9.8-13,14.7-19.5c1.2-1.6,2.3-3.2,3.6-4.7c1.1-1.3,2.6-1.7,4.3-1
		C164.7,480.5,165.7,481.6,165.9,483z"/>
	<path class="st1" d="M236.9,553.4c-3.3,0.1-5.1-1.9-4.4-4.7c2.4-9.6,4.8-19.2,7.3-28.8c0.8-3,2.6-4,5.4-3.2c2,0.6,3.1,1.9,2.5,4
		c-2.5,9.9-5.1,19.9-7.7,29.8C239.6,552.1,238.6,553.4,236.9,553.4z"/>
	<path class="st1" d="M296.6,560.6c-3.2,0.7-5.4-0.8-5.4-3.7c0.2-9.9,0.4-19.8,0.6-29.7c0.1-3.1,1.7-4.5,4.6-4.2
		c2.1,0.2,3.5,1.2,3.4,3.4c-0.3,10.2-0.5,20.4-0.8,30.7C299,558.8,298.3,560.2,296.6,560.6z"/>
	<path class="st2" d="M333.3,495.5c-8.2,1-17.1,3.1-25.3,3.5c-15.2,0.8-31.2-1.4-46.2-4c-19-3.3-37-9.5-54.2-17.8
		c-13.7-6.7-28-15.2-39.8-24.7c-15.5-12.4-29.1-27.3-40.2-43.5c-13-19-22.6-37.9-28.1-60c-2.2-8.6-5.6-21.5-6.5-30.3
		c-0.7-7.1-1.5-14.9-1.5-22c0-36,0-66,0-102c0-1.2,0-4.1,0-5.3c2.4-2.2,9.8-9.1,12.1-11.3c5.2-4.9,11-8.6,18.2-10.2
		c5.8-1.2,11.7-1.6,17.6-1.1c7.2,0.6,13.3,3.4,18.5,8.3c5.8,5.5,9.7,12.2,13.5,19c5.5,9.7,10.7,19.7,18.1,28.3
		c7.2,8.3,15.2,15.5,26.7,17.9c6.6,1.4,13.3,1.7,19.9,1.6c11.7-0.2,22.5,2,32.1,8.6c0.9,0.6,2,1.1,2.9,1.7
		c13.3,7.5,27.5,8.8,42.3,5.6c7.3-1.6,13.7-5.1,19.9-9c7.2-4.5,15.1-6.7,23.7-6.8c5.4-0.1,10.9-0.3,16.3-0.5
		c10.3-0.4,19.5-3.6,27.4-10.3c8.6-7.3,14.8-16.3,20.3-25.8c4.7-8,8.7-16.3,14.2-23.8c4.7-6.4,10.2-12,18.3-13.7
		c14.7-3,28.5-1.6,40.2,8.7c2.4,2.1,8.3,8.2,11.1,9.8c0,40.1,0.5,76.9,0,117c-0.3,25-5.8,51.5-16.2,74.5
		c-7,15.6-16.6,29.2-27.3,42.5c-8.8,10.9-19.9,20.7-30.8,29.7c-11.9,9.7-25.8,18.7-39.7,25.5c-14.8,7.3-27.1,12.5-43.3,16.1
		c-0.3,0.1-4.5,1.2-4.8,1.2c-1.1-3.2-3.7-10.2-4.7-13.4c-2-6.2-4.1-12.4-4-19.1c0.1-4.3,1.6-5.5,5.9-5c3,0.3,5.9,0.8,8.9,0.9
		c15.9,0.6,26.1-6.6,25.9-22.9c-0.1-6.5-1.7-12.7-3.2-19c-1.3-5.3-4.6-8.6-9.6-10.7c-2.4-1-5-1.7-7.6-2.2
		c-11.5-2.1-22.9-1.4-34.4-0.2c-13.3,1.4-22.7,8-29,19c-4.9,8.6-7.7,17.9-10.1,27.4c-0.6,2.5,0.8,4.4,3,5.7c1.4,0.9,3.1,1.2,4.7,1.5
		c2.5,0.4,5,0.7,7.5,1.3c2.3,0.6,2.7,1.8,1.6,3.8c-0.9,1.6-2.2,2.8-3.8,3.8c-4.4,2.8-9.1,5.1-13.8,7.4c-5.8,2.8-10.8,1.8-15.7-1.8
		c-4.9-3.6-9.3-7.9-13.5-12.2c-7.6-7.8-16.1-14.1-26.4-18.2c-3.5-1.4-7-2.8-10.1-4.9c-6.8-4.5-7-11.6-0.6-16.5
		c2.8-2.1,5.9-3.7,9.1-5.1c6.7-3,13.5-5.6,19.9-9.2c7.1-4,14.9-6.8,21.9-11c8.5-5.1,14.8-11.9,18-21.2c1.4-4.2,1.4-4.2,6-3.1
		c4,0.9,8,2.1,12.2,1.4c3.4-0.6,5.7-2.4,6.1-5.8c1.2-11.5-2.8-19.9-15.6-18.8c-0.3,0-0.7,0-1.1,0c-3.6,0.5-6.8-0.6-9.8-2.3
		c-7.5-4.2-13.7-9.8-19.1-16.2c-2.8-3.4-5.3-7-6.5-11.2c-1.3-4.5-0.1-6.9,4.2-8.9c3.3-1.5,6.5-3,9.8-4.4c2.1-0.9,4.2-1.7,6.5-2
		c2.2-0.3,4,0.4,5.2,2.2c1.3,2.1,2.3,4.4,3.2,6.7c2,4.8,3.8,9.7,5.9,14.4c3.1,6.7,7.8,11.3,16.3,11.7c6.8,0.3,8.9,3.5,7.8,10.1
		c-1.2,6.7,2.7,12.5,9.5,14.3c3.2,0.8,6.4,0.9,9.7,0.5c10.9-1.5,16.3-10.2,12.6-20.1c-0.6-1.7-1.3-3.4-1.6-5.1
		c-2.4-11.1,0.1-21.5,5.2-31.5c3.7-7.3,9.2-11.1,17.9-10.9c9.2,0.2,17.7-2.5,25.1-7.9c2.3-1.7,4.4-3.6,5.2-6.2
		c2.1-6.3,4-12.6,5.7-19c1.2-4.5-2.8-8-7.3-6.7c-2.6,0.8-3.7,2.7-4.2,5.1c-1,4.7-1.8,9.5-3.9,14c-2.6,5.6-6.7,9.7-13.1,11.3
		c-2.7,0.7-5.4,0.8-8.1,0.8c-11.4-0.2-20,4.4-25.4,14.2c-8,14.3-11.1,29.2-5,45c0.9,2.3,1.3,4.7-0.8,6.7c-1.9,1.8-6.9,2.6-9.5,1.4
		c-3.1-1.4-1.9-4-1.8-6.3c0-0.3,0.1-0.5,0.1-0.8c0.7-7.5-2.9-13.2-10.2-16.1c-2.9-1.1-5.9-1.7-9-1.8c-1.7-0.1-2.8-0.7-3.7-2.1
		c-1.8-2.7-3.1-5.7-4.4-8.7c-2.3-5.2-3.9-10.7-6.7-15.7c-3.4-6.2-8.9-9.1-15.8-8.1c-1.7,0.2-3.5,0.6-5.1,1.1
		c-6,1.8-11.7,4.7-17.2,7.5c-5.9,3-8.3,8-7.5,14.5c0.3,2.4,1,4.7,2,6.8c5.2,10.9,13.6,19.1,23.5,26c6.6,4.6,13.7,7.5,22.1,6.7
		c3.8-0.4,4.1,0.1,4.8,3.8c0.1,0.5,0.1,1,0.2,1.5c0.4,1.5-0.1,1.9-1.7,1.5c-3.7-0.8-7.3-1.9-11.1-2.1c-5.6-0.3-9.4,2.5-10.3,7
		c-1,5.1-3.4,9.6-7.1,13.4c-3.4,3.6-7.3,6.4-11.8,8.5c-11.4,5.3-22.3,11.5-33.9,16.3c-5.9,2.4-11.7,5.2-16.4,9.5
		c-6.3,5.8-7.5,12.6-3.7,20.1c3,6.1,8.3,9.6,14.5,11.9c12.6,4.8,22.8,12.6,31.8,22.1c4.4,4.7,9.4,8.9,15.3,12
		c5.5,2.9,11.1,3.6,17,1.7c7.8-2.4,14.8-6.2,21.4-10.7c2.5-1.7,4.6-4,6-6.7c3.1-6,0.8-12-5.5-14.8c-2.6-1.1-5.4-1.6-8.2-2
		c-1.1-0.1-1.9-0.3-1.5-1.7c2.4-8.1,4.8-16.1,9.7-23.2c4.2-6.2,9.8-10.3,17.5-11.6c7.1-1.1,14.2-1.6,21.3-1.4
		c5.4,0.1,10.7,0.4,15.9,2.2c1.9,0.7,4.1,1.3,4.7,3.3c2.3,7.2,4.3,14.6,3.6,22.2c-0.7,7.1-4.1,10.1-11.5,10.8
		c-4.2,0.4-8.2-0.4-12.3-0.9c-9.2-1.2-15.6,3.5-16.6,12.2c-0.3,2.3-0.2,4.6,0.1,6.9C325.5,474.4,330.3,487.2,333.3,495.5z"/>
	<path class="st3" d="M96.5,169.6c0-11.8,0-23.6-0.1-35.4c0-1.4,0.7-1.9,1.9-2.3c16.3-5.8,32.9-10.9,49.6-15.4
		c14.8-3.9,29.8-7.2,44.8-9.9c10.8-2,21.7-3.6,32.7-4.8c12.8-1.4,25.6-2.4,38.5-3.2c14.1-0.8,28.1-1.1,42.2-0.8
		c10.3,0.2,20.5,0.7,30.8,1.5c11,0.9,22,2,32.9,3.3c25.3,3.1,50.3,7.9,75.1,13.9c15,3.6,29.8,7.7,44.5,12.4c3.2,1,6.5,2.2,9.7,3.1
		c1.4,0.4,1.9,1.1,1.9,2.5c-0.1,11.1-0.1,22.2-0.1,33.4c-3.3-2.6-6.7-5.1-10.6-7c-8.4-4.1-17.4-5.2-26.6-5.3
		c-12.7-0.1-23.5,4.1-32.2,13.2c-7,7.4-11.8,16.2-16.7,24.9c-4.5,8-9,16.1-15.3,23.1c-6.6,7.3-14.1,13-24.7,13.6
		c-3.2,0.2-6.5,0.3-9.7,0.4c-6.8,0.3-13.5,0.2-20.2,1.5c-7.6,1.5-14.2,5.2-20.7,9.1c-5.3,3.1-10.8,5.7-17,6.4c0-6.9,0-13.8,0-20.6
		c0-10.6,3.1-20.2,9.3-29c14.1-20,40.6-29.4,66.1-23.6c1,0.2,2.1,0.7,3.1,0.1c1.3-0.8,1.9-0.1,2.6,0.7c2,2.2,4.1,4.2,6.6,5.8
		c2.2,1.4,4.6,2.1,7.2,1.9c3.2-0.2,4.1-2.1,2.3-4.6c-1.3-1.8-3.2-2.9-5.3-3.6c-3.2-1.1-6.5-1.5-9.8-1.6c-0.7,0-1.7,0.3-1.9-0.8
		c-0.4-2-2.1-2.3-3.7-2.7c-5.7-1.3-11.4-1.8-17.3-1.6c-22.3,0.6-40.4,9.2-53.8,26.6c-0.5,0.6-0.7,1.6-1.9,1.5
		c3.5-8.2,9.4-15.9,16.7-21.3c16.4-12.2,34.8-15.8,55-11.4c1.3,0.3,2.7,1.1,4,0.1c1-0.8,1.6-0.4,2.4,0.3c2.3,2,4.7,3.8,7.5,5.1
		c1.9,0.8,3.8,1.4,5.9,1.2c1.6-0.1,3.4-0.2,3.9-2c0.5-1.7-0.8-2.9-2-3.9c-1.4-1.2-3.1-1.8-4.9-2.3c-3.2-0.8-6.5-0.4-9.7-0.5
		c-0.7,0-1.6,0.4-2-0.6c-0.6-1.3-1.9-1.6-3.2-1.9c-12.1-2.9-24.2-2.8-36.2,0.4c-16.3,4.4-30.2,15.5-39.5,29.1
		c-0.2-0.2-0.2-0.1-0.4-0.3c0.4-0.9,1.7-4,2.1-4.9c11.6-22.9,39.7-35.8,66.8-30.7c0.9,0.2,2.1,0.6,2.5,0.2c2.4-1.9,3.9-0.2,5.6,1
		c1.9,1.2,3.9,2.3,6,3.1c2.4,0.9,4.9,1.2,7.5,0.5c2.9-0.8,3.5-2.9,1.3-4.9c-1.8-1.6-4-2.4-6.4-2.7c-3.3-0.3-6.5-0.2-9.7,0.4
		c-0.7,0.1-1.7,0.6-2.2-0.2c-1-1.9-3-1.9-4.8-2.2c-6.5-1.1-13.1-1.3-19.7-0.5c-19,2.3-34.6,10.4-46.3,25.1c-2.1,2.6-3.7,5.5-5.7,8.7
		c-0.1-0.8-0.2-1.1-0.1-1.4c0.6-3,2-5.6,3.6-8.1c13.4-21.1,33.2-30.1,58.4-29c1.3,0.1,2.8,0.5,3.8-0.6s1.8-0.5,2.7-0.1
		c3.9,1.9,7.9,3.8,12.5,3.5c3.3-0.2,5.7-1.4,5.8-3c0.2-1.7-2.1-3.5-5.3-4.2c-3.9-0.8-7.7,0-11.4,1.1c-1.7,0.5-3.3,1.3-4.6-0.8
		c-0.4-0.7-1.6-0.6-2.5-0.7c-20.7-1.2-38.9,4.5-53.9,18.6c-3.3,3.1-6,6.6-8.8,10.4c-0.3-2-0.3-2,0.6-3.6
		c10.3-17.7,26.3-27,46.8-29.6c1-0.1,2.4,0.1,3-0.7c1.3-1.7,2.6-0.9,4-0.4c4.3,1.4,8.6,2.8,13.1,1.4c1.7-0.5,3.8-1.1,3.9-3.3
		c0-2.3-2-2.8-3.8-3.3c-4.3-1.2-8.3,0.1-12.3,1.5c-1.8,0.6-3.5,2.2-5.4,0c-0.3-0.3-1.2-0.3-1.8-0.2c-17.8,1.8-33,8.6-44.8,21.7
		c-1.7,1.9-3.3,3.9-4.9,6c-1.2-1.6-0.3-2.8,0.5-4c8-12.3,19.3-20.4,33.6-24.8c1-0.3,2.4-0.3,2.8-1.2c1-1.9,2.4-1.4,4-1.2
		c4.2,0.5,8.5,0.9,12.4-0.9c1.9-0.8,4.2-2,3.7-4.4c-0.5-2.5-3.1-2.3-5.2-2.4c-0.9-0.1-1.9,0.1-2.9,0.3c-3.2,0.7-6,2.3-8.7,4.2
		c-1.4,1-2.6,2.4-4.6,0.7c-0.7-0.6-1.9,0-2.8,0.3c-8.5,2.4-16.1,6.3-23,11.6c-3.5,2.7-6.5,5.9-9.6,9.1c-0.1-0.4-0.3-0.6-0.2-0.7
		c0.3-0.6,0.6-1.2,1-1.8c3.5-5.7,8.7-9.9,13.1-14.9c3.2-3.7,7-4,11.1-4.9c3-0.6,5.7-1.8,7.6-4.3c0.7-1,1.5-2,0.9-3.3
		c-0.7-1.4-2-1.6-3.4-1.5c-1,0-1.9,0.2-2.9,0.4c-3.4,0.8-5.9,3-8.3,5.2c-1.7,1.6-3,4-6.1,3.6c-0.5-0.1-1.1,0.5-1.5,0.9
		c-3.1,2.4-5.9,5-8.5,7.9c-3.3,3.6-6,7.6-8.5,11.7c-0.4-0.3-0.6-0.3-0.7-0.4c-0.3-0.5-0.6-1-1-1.5c-4.1-6.8-9.3-12.6-15.5-17.5
		c-0.6-0.5-1.4-1.2-2-1.1c-2.6,0.5-3.6-1.4-5.1-2.9s-3.2-2.9-5-4.2c-2.2-1.5-4.7-2.4-7.4-2.2c-2.9,0.2-3.9,2-2.3,4.3
		c1.3,2,3.3,3.3,5.6,4.1c3,1.1,6.1,1.6,9.3,1.8c0.8,0,1.7-0.2,1.7,1c0,1.3,0.9,1.9,1.8,2.6c6,4.8,12.6,10.7,16.2,17.5
		c-0.2,0.1-0.1,2.3-0.3,2.4c-8.5-9.8-20.8-19-33.4-22.9c-1.4-0.4-2.9-1.2-4.3-0.1c-1,0.9-1.6,0.5-2.5-0.1c-2.3-1.8-4.9-3.4-7.7-4.5
		c-2.6-1-5.2-1.5-8-0.6c-3,0.9-3.4,2.8-1.1,4.9c1.3,1.2,2.9,1.9,4.6,2.3c3.6,0.8,7.2,0.6,10.8,0.1c0.9-0.1,2.2-0.9,2.8,0.4
		c0.7,1.4,2.1,1.6,3.5,2.1c14.5,4.4,25.9,12.7,33.9,25.2c0.8,1.2,1.3,2.3,0.2,3.6c-0.2-0.2-0.4-0.3-0.6-0.5
		c-10.9-15.1-26.1-23.6-44.8-26.6c-2.1-0.3-4.7-1.4-6.4-0.1c-1.9,1.4-3,0.6-4.6,0s-3.1-1.2-4.7-1.6c-3.2-0.8-6.4-1.1-9.6,0.3
		c-1.2,0.5-2.5,1.1-2.5,2.7c0,1.5,1.2,2.2,2.3,2.8c0.7,0.3,1.5,0.6,2.2,0.8c3.9,1.1,7.5-0.1,11.1-1.1c2-0.6,4-2.1,6,0.2
		c0.2,0.3,1,0.2,1.5,0.3c2.5,0.4,5.1,0.6,7.5,1.1c17.3,3.8,30.9,12.8,39.8,27.8c1.4,2.3,1.3,2.3,1,4.2c-0.3-0.3-0.5-0.5-0.7-0.8
		c-15-20.5-35.9-29.1-61.4-28c-0.9,0-2.4,0.1-2.7,0.6c-1.6,2.7-3.7,1.1-5.6,0.7c-1-0.2-2-0.6-3.1-0.7c-3.8-0.6-7.5-0.9-11,1.2
		c-1.1,0.7-2,1.4-1.9,2.8c0.2,1.3,1.2,1.8,2.2,2.3c0.7,0.3,1.5,0.5,2.3,0.6c4.3,0.7,8.1-0.8,11.9-2.5c1.8-0.8,3.5-2.5,5.5-0.4
		c0.4,0.4,1.5,0.2,2.3,0.1c6.5-0.7,12.9-0.2,19.1,1.2c19.8,4.5,34.4,15.3,42.7,33.5c0.5,1,1.1,2.1,0.4,3.6c-2.7-4.8-5.6-9.2-9.4-13
		c-16.4-16.7-36.6-23-60-20.4c-2.1,0.2-4.7-0.1-6,1.5s-2.5,1.2-4.1,1.1c-4.8-0.4-9.7-1.2-14.1,1.7c-1.4,0.9-2.7,1.9-2.3,3.7
		c0.4,1.6,2,1.9,3.5,2.2c5.2,0.8,9.3-1.8,13.4-4.4c1.4-0.9,2.5-2.3,4.4-0.5c0.6,0.6,1.8,0.1,2.8-0.1c4-0.9,8-1.2,12.1-1.1
		c15.2,0.2,28.9,4.6,40.6,14.2c7.1,5.8,13.7,13.1,16.9,21.7c-0.1,0.1-0.4,1.5-0.5,1.6c-15.9-25-47.9-36.8-76-30
		c-1,0.3-2.3,0.4-2.8,1.3c-0.7,1.4-1.8,1.3-3,1.2c-4.2-0.1-8.5-0.4-12.4,1.7c-1.9,1.1-4.5,2.4-3.6,5c0.9,2.5,3.8,2.1,6,1.8
		c3.7-0.5,6.6-2.6,9.5-4.7c1.5-1.1,2.7-3.3,5.2-1.4c0.3,0.2,1.2-0.1,1.8-0.2c9.2-2.3,18.6-2.9,28-1.1c19.5,3.7,34.5,13.5,43.7,30.8
		c0.5,1,1.1,1.9,0.7,3.1c-15.9-23-44.6-32.7-72.2-26.8c-1.2,0.3-2.9,0.2-3.2,1.3c-0.7,2.6-2.6,2.1-4.5,2.2c-2.5,0.1-4.9,0.5-7.3,1.2
		c-2.3,0.7-4.4,1.7-5.9,3.7c-0.8,1-1.6,2.1-0.9,3.5c0.7,1.2,1.9,1.4,3.2,1.4c2.3,0.1,4.4-0.5,6.3-1.6c2.8-1.6,5.2-3.7,7.3-6.2
		c0.7-0.8,1.3-1.5,2.6-0.7c0.9,0.6,2,0.1,3.1-0.1c16.6-3.6,32.4-1.7,47.1,6.6c15.5,8.9,25.4,21.7,27.8,39.3
		c1.2,8.9,0.4,17.8,0.4,26.7c-6.9-1.2-12.7-4.8-18.5-8.3c-7.2-4.2-14.8-7.1-23.2-7.6c-6.9-0.4-13.9-0.6-20.8-0.9
		c-8.4-0.3-15.7-2.9-22-8.5c-7.6-6.8-13-15.1-17.9-23.7c-4.3-7.5-8.3-15.1-13.3-22.2c-8.9-12.6-20.6-20.3-37-20.5
		C121.3,155.6,107.5,158.9,96.5,169.6z"/>
	<path class="st3" d="M297.4,248l-8.2-0.5c-6.9-1.2-12.7-4.8-18.5-8.3c-7.2-4.2-14.8-7.1-23.2-7.6c-6.9-0.4-13.9-0.6-20.8-0.9
		c-8.4-0.3-15.7-2.9-22-8.5c-7.6-6.8-13-15.1-17.9-23.7c-4.3-7.5-8.3-15.1-13.3-22.2c-8.9-12.6-20.6-20.3-37-20.5
		c-15.2-0.2-27.5,0.7-43.9,17.1c0-11.8-1.1-27.2-1.2-39c0-1.4,3.7-5.7,4.9-6.2c16.3-5.8,33.2-10.7,50-15.1c14.8-3.9,30.4-7,45.5-9.7
		c10.8-2,20-3.4,31-4.6c12.8-1.4,27-3.5,39.8-4.2c14.1-0.8,25.9-1.1,40-0.8c10.3,0.2,24.3,1,34.5,1.8c11,0.9,21.4,1.4,32.3,2.8
		c25.3,3.1,50.9,8.1,75.7,14.1c15,3.6,29.7,7.5,44.3,12.2c3.2,1,7.2,2,10.5,3c1.4,0.4,5.3,5.2,5.2,6.7c-0.1,11.1,0,26.4,0,37.5
		c-3.3-2.6-11-8.2-14.9-10.1c-8.4-4.1-17.4-5.2-26.6-5.3c-12.7-0.1-23.5,4.1-32.2,13.2c-7,7.4-11.8,16.2-16.7,24.9
		c-4.5,8-9,16.1-15.3,23.1c-6.6,7.3-14.1,13-24.7,13.6c-3.2,0.2-6.5,0.3-9.7,0.4c-6.8,0.3-13.5,0.2-20.2,1.5
		c-7.6,1.5-14.2,5.2-20.7,9.1c-5.3,3.1-10.8,5.7-17,6.4h-4.5h-5.2V248z"/>
	<path class="st4" d="M307.2,248c-6,1-12,0.9-18-0.5c-0.1-8.9,0.7-17.8-0.4-26.7c-2.3-17.6-12.2-30.5-27.8-39.3
		c-14.7-8.4-30.5-10.2-47.1-6.6c-1,0.2-2.1,0.7-3.1,0.1c-1.3-0.8-1.9-0.1-2.6,0.7c-2.1,2.4-4.5,4.5-7.3,6.2c-1.9,1.1-4,1.7-6.3,1.6
		c-1.3-0.1-2.5-0.2-3.2-1.4c-0.7-1.4,0.1-2.4,0.9-3.5c1.5-1.9,3.6-3,5.9-3.7c2.4-0.7,4.8-1.1,7.3-1.2c1.8-0.1,3.8,0.4,4.5-2.2
		c0.3-1.1,2.1-1.1,3.2-1.3c27.6-5.9,56.2,3.8,72.2,26.8c0.4-1.2-0.2-2.1-0.7-3.1c-9.3-17.3-24.2-27.1-43.7-30.8
		c-9.4-1.8-18.7-1.2-28,1.1c-0.6,0.1-1.4,0.5-1.8,0.2c-2.5-2-3.7,0.2-5.2,1.4c-2.9,2.2-5.8,4.2-9.5,4.7c-2.2,0.3-5.1,0.7-6-1.8
		c-0.9-2.6,1.6-3.9,3.6-5c3.8-2.1,8.2-1.8,12.4-1.7c1.3,0,2.3,0.1,3-1.2c0.5-0.9,1.7-1,2.8-1.3c28.1-6.9,59.2,3.3,75.1,28.3
		c0.2,0.2,0.4,0.4,0.6,0.6c0.3-0.4,0.2-0.7-0.2-1c-3.1-8.6-8.7-15.5-15.8-21.2c-11.7-9.5-25.4-13.9-40.6-14.2
		c-4-0.1-8.1,0.3-12.1,1.1c-1,0.2-2.2,0.7-2.8,0.1c-1.8-1.8-3-0.4-4.4,0.5c-4,2.6-8.1,5.2-13.4,4.4c-1.5-0.2-3.1-0.5-3.5-2.2
		c-0.4-1.8,0.9-2.8,2.3-3.7c4.4-2.9,9.3-2,14.1-1.7c1.6,0.1,2.7,0.5,4.1-1.1c1.3-1.6,3.9-1.3,6-1.5c23.4-2.6,43.6,3.7,60,20.4
		c3.8,3.8,6.7,8.3,9.4,13c0.7-1.5,0-2.5-0.4-3.6c-8.2-18.3-22.9-29-42.7-33.5c-6.3-1.4-12.7-1.9-19.1-1.2c-0.8,0.1-1.9,0.3-2.3-0.1
		c-2.1-2.2-3.8-0.4-5.5,0.4c-3.8,1.7-7.6,3.2-11.9,2.5c-0.8-0.1-1.6-0.3-2.3-0.6c-1-0.5-2.1-1-2.2-2.3c-0.2-1.4,0.8-2.2,1.9-2.8
		c3.5-2.1,7.2-1.8,11-1.2c1,0.2,2,0.5,3.1,0.7c1.9,0.4,3.9,2,5.6-0.7c0.3-0.5,1.8-0.5,2.7-0.6c25.6-1.1,46.4,7.5,61.4,28
		c0.2,0.3,0.4,0.5,0.7,0.8c0.3-1.9,0.4-1.9-1-4.2c-8.9-15-22.5-23.9-39.8-27.8c-2.5-0.5-5-0.8-7.5-1.1c-0.5-0.1-1.3,0-1.5-0.3
		c-1.9-2.3-3.9-0.8-6-0.2c-3.6,1-7.3,2.2-11.1,1.1c-0.8-0.2-1.5-0.4-2.2-0.8c-1.2-0.6-2.4-1.3-2.3-2.8c0-1.5,1.3-2.1,2.5-2.7
		c3.1-1.4,6.4-1.1,9.6-0.3c1.6,0.4,3.2,1,4.7,1.6s2.7,1.4,4.6,0c1.7-1.3,4.3-0.2,6.4,0.1c18.7,3,33.8,11.5,44.8,26.6
		c0.1,0.2,0.4,0.3,0.6,0.5c1.1-1.3,0.6-2.4-0.2-3.6c-8-12.5-19.4-20.8-33.9-25.2c-1.3-0.4-2.7-0.7-3.5-2.1c-0.7-1.3-1.9-0.5-2.8-0.4
		c-3.6,0.5-7.2,0.6-10.8-0.1c-1.7-0.4-3.3-1.1-4.6-2.3c-2.3-2.1-1.8-4,1.1-4.9c2.8-0.8,5.4-0.4,8,0.6c2.8,1.1,5.3,2.6,7.7,4.5
		c0.8,0.6,1.5,1,2.5,0.1c1.4-1.2,2.9-0.4,4.3,0.1c12.7,3.8,21.5,8.8,30,18.6c0.3,0.3,0.7,0.7,1,1l0.7,0.8l0.8,0.8h0.1
		c0,0-0.1-0.7-0.3-1.2c-3.6-6.8-8.8-12.3-14.8-17.1c-0.9-0.7-1.8-1.3-1.8-2.6c0-1.2-0.9-1-1.7-1c-3.2-0.2-6.3-0.7-9.3-1.8
		c-2.3-0.8-4.3-2-5.6-4.1c-1.5-2.4-0.6-4.1,2.3-4.3c2.8-0.2,5.2,0.7,7.4,2.2c1.8,1.2,3.4,2.7,5,4.2c1.4,1.4,2.4,3.3,5.1,2.9
		c0.6-0.1,1.4,0.7,2,1.1c6.3,4.9,11.5,10.7,15.5,17.5c0.3,0.5,0.6,1,1,1.5c0.1,0.1,0.3,0.2,0.7,0.4c2.6-4.1,5.3-8.1,8.5-11.7
		c2.6-2.9,5.5-5.5,8.5-7.9c0.5-0.4,1.1-1,1.5-0.9c3.1,0.4,4.4-2,6.1-3.6c2.4-2.3,4.9-4.5,8.3-5.2c0.9-0.2,1.9-0.3,2.9-0.4
		c1.4,0,2.7,0.2,3.4,1.5c0.6,1.3-0.1,2.3-0.9,3.3c-1.9,2.4-4.6,3.7-7.6,4.3c-4.1,0.9-7.8,1.2-11.1,4.9c-4.4,5-9.6,9.2-13.1,14.9
		c-0.4,0.6-0.7,1.2-1,1.8c-0.1,0.1,0.1,0.3,0.2,0.7c3.1-3.2,6.1-6.4,9.6-9.1c6.9-5.3,14.5-9.2,23-11.6c0.9-0.3,2.1-0.9,2.8-0.3
		c2,1.7,3.2,0.3,4.6-0.7c2.6-1.9,5.4-3.5,8.7-4.2c0.9-0.2,1.9-0.4,2.9-0.3c2.1,0.1,4.7-0.1,5.2,2.4c0.5,2.4-1.8,3.5-3.7,4.4
		c-4,1.8-8.2,1.4-12.4,0.9c-1.5-0.2-3-0.7-4,1.2c-0.5,0.9-1.8,0.9-2.8,1.2c-14.3,4.4-25.6,12.5-33.6,24.8c-0.8,1.2-1.6,2.4-0.5,4
		c1.7-2,3.2-4.1,4.9-6c11.9-13.1,27.1-19.9,44.8-21.7c0.6-0.1,1.5-0.1,1.8,0.2c1.9,2.1,3.6,0.6,5.4,0c4-1.4,8-2.7,12.3-1.5
		c1.8,0.5,3.8,1,3.8,3.3c0,2.2-2.1,2.8-3.9,3.3c-4.6,1.4-8.9-0.1-13.1-1.4c-1.4-0.5-2.7-1.3-4,0.4c-0.6,0.8-2,0.5-3,0.7
		c-20.5,2.6-36.6,11.9-46.8,29.6c-0.9,1.6-0.9,1.6-0.6,3.6c2.8-3.8,5.5-7.3,8.8-10.4c15-14.1,33.2-19.8,53.9-18.6
		c0.9,0,2.1,0,2.5,0.7c1.3,2.1,2.9,1.3,4.6,0.8c3.7-1,7.5-1.9,11.4-1.1c3.2,0.7,5.5,2.5,5.3,4.2c-0.2,1.6-2.6,2.8-5.8,3
		c-4.6,0.3-8.6-1.6-12.5-3.5c-0.9-0.5-1.7-1.1-2.7,0.1c-1,1.1-2.4,0.6-3.8,0.6c-25.2-1.1-45,7.9-58.4,29c-1.6,2.5-3,5.2-3.6,8.1
		c-0.1,0.3,0,0.6,0.1,1.4c2-3.2,3.6-6.1,5.7-8.7c11.7-14.7,27.3-22.8,46.3-25.1c6.6-0.8,13.2-0.6,19.7,0.5c1.8,0.3,3.7,0.3,4.8,2.2
		c0.5,0.9,1.4,0.4,2.2,0.2c3.2-0.5,6.4-0.7,9.7-0.4c2.4,0.2,4.6,1.1,6.4,2.7c2.2,2,1.6,4.1-1.3,4.9c-2.6,0.7-5.1,0.3-7.5-0.5
		c-2.2-0.8-4.1-1.9-6-3.1c-1.7-1.1-3.2-2.9-5.6-1c-0.5,0.4-1.7,0-2.5-0.2c-27.1-5.1-55.2,7.8-66.8,30.7c-0.4,0.8-0.7,1.7-1.1,2.6
		c-0.2,0.5-0.4,1-0.6,1.5c-0.3,0.3-0.5,0.6-0.1,1c0.1-0.2,0.3-0.5,0.4-0.7c0.5-0.2,0.7-0.8,0.8-1.2c9.3-13.6,22-22.7,38.3-27
		c12-3.2,24.1-3.3,36.2-0.4c1.3,0.3,2.6,0.6,3.2,1.9c0.5,1,1.3,0.6,2,0.6c3.2,0.1,6.5-0.3,9.7,0.5c1.8,0.5,3.5,1.1,4.9,2.3
		c1.2,1,2.5,2.1,2,3.9c-0.5,1.8-2.3,1.8-3.9,2c-2.1,0.2-4-0.4-5.9-1.2c-2.8-1.3-5.3-3.1-7.5-5.1c-0.8-0.7-1.4-1.1-2.4-0.3
		c-1.3,1-2.7,0.2-4-0.1c-20.2-4.4-38.6-0.8-55,11.4c-7.3,5.4-13.3,13.1-16.7,21.3c1.2,0.1,1.4-0.9,1.9-1.5
		c13.4-17.4,31.5-26,53.8-26.6c5.8-0.1,11.6,0.3,17.3,1.6c1.6,0.4,3.4,0.6,3.7,2.7c0.2,1.1,1.2,0.8,1.9,0.8c3.4,0.1,6.7,0.5,9.8,1.6
		c2.1,0.7,4,1.8,5.3,3.6c1.9,2.6,1,4.4-2.3,4.6c-2.6,0.2-5-0.6-7.2-1.9c-2.5-1.6-4.7-3.6-6.6-5.8c-0.7-0.8-1.3-1.6-2.6-0.7
		c-0.9,0.6-2,0.1-3.1-0.1c-25.5-5.8-52,3.6-66.1,23.6c-6.2,8.7-9.3,18.4-9.3,29C307.2,234.2,307.2,241.1,307.2,248z"/>
	<path class="st1" d="M510.5,220.7c0,26.4,0.2,52.8-0.1,79.2c-0.5,48-16.6,90.8-48.1,127.9c-29.4,34.6-66.8,57.4-111.7,68.6
		c-24.7,6.1-49.8,7.8-75.1,5c-46.9-5.2-87.6-23.3-121.9-54.5c-33.4-30.3-54.4-67.4-63.1-110.9c-2.7-13.4-3.7-26.9-3.7-40.5
		c0.1-55.6,0.1-111.2,0-166.9c0-2.1,0.7-2.9,2.6-3.6c38.9-14.4,79-24.8,120.2-30.8c23.8-3.5,47.8-5.4,72-5.9
		c53.2-1.1,105.6,5.1,157.3,17.1c23.4,5.4,46.4,12.1,69.2,19.7c1.8,0.6,2.3,1.4,2.3,3.2C510.5,159.2,510.5,190,510.5,220.7z
		 M96.5,169.6c0,5,0,10.1,0,15.1c0,1.2-0.1,2.4-0.1,3.6c0,36,0,72,0,108c0,7.1,0.3,14.2,1,21.3c0.9,8.8,2.3,17.6,4.5,26.2
		c5.6,22.1,14.7,42.7,27.7,61.7c11.1,16.2,24.3,30.5,39.9,42.9c11.8,9.5,24.5,17.6,38.2,24.2c17.2,8.4,35.2,14.3,54.2,17.6
		c15,2.6,30,3.8,45.2,3c8.2-0.4,16.4-1.2,24.6-2.3c3.3-0.7,6.5-1.3,9.8-2c0.4,0,0.7,0,1.1,0c16.2-3.6,31.9-8.8,46.7-16.1
		c13.9-6.8,26.9-14.9,38.8-24.6c11-8.9,21.1-18.7,29.9-29.6c10.7-13.3,19.7-27.8,26.7-43.3c10.3-23,16-47.1,16.3-72.1
		c0.5-40.1,0.1-80.3,0.1-120.4c0-4.9,0-9.8-0.1-14.8c0-11.1,0-22.2,0.1-33.4c0-1.4-0.5-2.1-1.9-2.5c-3.3-1-6.5-2.1-9.7-3.1
		c-14.7-4.7-29.5-8.8-44.5-12.4c-24.7-6-49.7-10.8-75.1-13.9c-11-1.4-21.9-2.5-32.9-3.3c-10.2-0.8-20.5-1.3-30.8-1.5
		c-14.1-0.3-28.1,0-42.2,0.8c-12.9,0.7-25.7,1.8-38.5,3.2c-11,1.2-21.9,2.9-32.7,4.8c-15.1,2.7-30,6-44.8,9.9
		c-16.8,4.4-33.3,9.6-49.6,15.4c-1.2,0.4-1.9,0.9-1.9,2.3C96.5,146,96.5,157.8,96.5,169.6z"/>
</g>
</svg>
